module github.com/Budi721/study-case-go

go 1.18

require (
	github.com/go-sql-driver/mysql v1.6.0 // indirect
	github.com/google/wire v0.5.0 // indirect
	github.com/gorilla/mux v1.8.0 // indirect
	github.com/jinzhu/inflection v1.0.0 // indirect
	github.com/jinzhu/now v1.1.5 // indirect
	github.com/joho/godotenv v1.4.0 // indirect
	gorm.io/driver/mysql v1.3.4 // indirect
	gorm.io/gorm v1.23.6 // indirect
)
